{
    "extName": {
        "message": "Bell of Mindfulness"
    },
    "extDesc": {
        "message": "A bell that reminds us to breathe and be mindful of our body and mind."
    },
    "extAuthor": {
        "message": "San Nguyen"
    },
    "ext_default_title": {
        "message": "Bell of Mindfulness"
    },
    "bellTitle":{
        "message": ":: Bell of Mindfulness ::"
    },
    "RemainingTime":{
        "message": "Remaining time:"
    },
    "TimeBetweenBells":{
        "message":"Time between bells:"
    },
    "_5min_":{
        "message":"5 minutes"
    },
    "_10min_":{
        "message":"10 minutes"
    },
    "_15min_":{
        "message":"15 minutes"
    },
    "_20min_":{
        "message":"20 minutes"
    },
    "_30min_":{
        "message":"30 minutes"
    },
    "_45min_":{
        "message":"45 minutes"
    },
    "_60min_":{
        "message":"1 hour"
    },
    "NumOfBellsLabel":{
        "message":"Number of bells:"
    },
    "VolumeLabel":{
        "message":"Volume:"
    },
    "InviteBell":{
        "message":"Invite Bell"
    },
    "BellIsOff":{
        "message":"Bell is disabled."
    },
    "BellOfMindfulnessPurpose":{
        "message":"In the busy time of our daily life, we let our mind float away to many distractions. We forget about our body, our breath, and our mind; we forget about the unity of our mind and body. In order to remind us of this unification, the bell of mindfulness is meant for us to bring our mind back to our body. When we hear the sound of the bell, please stop what we are doing and take three breaths to bring our mind back to our body. Let this unification happen and be happy in the present moment."
    },
    "DesignCredit":{
        "message":"Software is designed and written by"
    },
    "TranslateCredit":{
        "message":"Language is translated by San Nguyen."
    },
    "InspirationTxt":{
        "message":"Software is written in honor of the teachings by"
    },
    "InspirationCredit":{
        "message":"Thich Nhat Hanh"
    },
    "on": {
        "message": "ON" // this is a state of on/off of a switch
    },
    "off": {
        "message": "OFF"
    },
    "BellNotificationTitle":{
        "message": "Breathe, my dear..."
    },
    "BellNotificationMsgIn":{
        "message": "In  -  I know I am breathing in."
    },
    "BellNotificationMsgOut":{
        "message": "Out  -  I know I am breathing out."
    },
    "isBellEnabledSwitch_Tooltip":{
        "message": "Click to turn bell off or on."
    },
    "RemainingTime_Tooltip":{
        "message": "Time until the next invitation of the bell."
    },
    "TimeBetweenBells_Tooltip":{
        "message": "Time spacing between each invitation of the bell."
    },
    "NumOfBells_Tooltip":{
        "message": "Number of full bells during each invitation."
    },
    "Volume_Tooltip":{
        "message":"Volume of the bell sounds. [values between 0 and 100]."
    },
    "InviteBell_Tooltip":{
        "message":"Click to invite the sound of the bells."
    },
    "bellUsePopupIcon":{
        "message":"Please click on the Bell of Mindfulness icon to set your options."
    },
    "DonationTextH4":{
        "message":"Enjoy this add-on?"
    },
    "DonationText":{
        "message":"Please help support its continued development by making a small contribution."
    },
    "DonationButton":{
        "message":"Contribute"
    },
    "DonationButton_Tooltip":{
        "message":"Contribute to the development of Bell of Mindfulness"
    }
}